<?xml version="1.0" encoding="utf-8"?>
<!-- Generator: Adobe Illustrator 24.0.0, SVG Export Plug-In . SVG Version: 6.00 Build 0)  -->
<svg version="1.1" id="Layer_1" xmlns="http://www.w3.org/2000/svg" xmlns:xlink="http://www.w3.org/1999/xlink" x="0px" y="0px"
	 viewBox="0 0 448 448" enable-background="new 0 0 448 448" xml:space="preserve">
<g>
	<path id="Rectangle_14" fill="#00D3B7" d="M185.4,7L364,54.9c55.9,15,89.1,72.5,74.1,128.4l-49.3,183.9
		c-15,55.9-72.5,89.1-128.4,74.1L81.7,393.5C25.8,378.5-7.4,321,7.6,265.1L56.9,81.2C71.9,25.2,129.4-8,185.4,7z"/>
</g>
<g id="icon_cœur" transform="translate(208.374 1046.674)">
	<path id="Path_73" fill="#FFFFFF" d="M5.9-716.7c1.2,1.2,3.7,2.5,5,2.5l2.5,1.2c2.5,1.2,5,1.2,6.2,0l2.5-1.2c2.5-1.2,3.7-2.5,5-2.5
		c84.7-48.6,128.3-109.6,115.9-162c-8.7-38.6-47.3-62.3-86-52.3c-17.4,3.7-31.1,13.7-41.1,28.7c-22.4-32.4-67.3-39.9-99.7-17.4
		c-13.7,10-24.9,24.9-28.7,41.1C-122.4-826.4-78.8-765.3,5.9-716.7z M-97.5-876.2c5-23.7,23.7-41.1,47.3-43.6c2.5,0,6.2,0,8.7,0
		c22.4,0,42.4,12.5,52.3,33.6c1.2,3.7,6.2,5,10,2.5c1.2-1.2,2.5-1.2,2.5-2.5c10-23.7,36.1-37.4,61-32.4
		c23.7,3.7,42.4,21.2,47.3,43.6c11.2,47.3-29.9,103.4-109.6,148.3c-1.2,1.2-2.5,1.2-5,2.5c-1.2-1.2-3.7-1.2-5-2.5
		C-67.6-772.8-108.7-828.9-97.5-876.2z"/>
	<path id="Path_74" fill="#FFFFFF" d="M75.7-887.4c1.2,0,3.7,0,5,0c8.7,2.5,16.2,8.7,17.4,18.7c1.2,2.5,3.7,5,6.2,5h1.2
		c3.7,0,6.2-3.7,5-7.5l0,0c-2.5-15-15-26.2-28.7-28.7c-2.5,0-3.7,0-6.2,0c-3.7,0-6.2,2.5-6.2,6.2C68.2-891.1,70.7-888.7,75.7-887.4
		C74.5-887.4,75.7-887.4,75.7-887.4L75.7-887.4z"/>
	<path id="Path_75" fill="#FFFFFF" d="M106.9-846.3c-2.5-1.2-5,0-7.5,1.2c-2.5,1.2-2.5,5-1.2,6.2c0,1.2,1.2,1.2,1.2,2.5
		c1.2,1.2,2.5,2.5,5,2.5c1.2,0,3.7-1.2,5-2.5c1.2-1.2,2.5-2.5,2.5-5c0-1.2-1.2-3.7-2.5-5C108.1-846.3,108.1-846.3,106.9-846.3z"/>
</g>
</svg>
