<?xml version="1.0" encoding="utf-8"?>
<!-- Generator: Adobe Illustrator 24.0.0, SVG Export Plug-In . SVG Version: 6.00 Build 0)  -->
<svg version="1.1" id="Layer_1" xmlns="http://www.w3.org/2000/svg" xmlns:xlink="http://www.w3.org/1999/xlink" x="0px" y="0px"
	 viewBox="0 0 448 448" style="enable-background:new 0 0 448 448;" xml:space="preserve">
<style type="text/css">
	.st0{fill:#00D3B7;}
	.st1{fill:#FFFFFF;}
</style>
<g>
	<path id="Rectangle_14" class="st0" d="M185.4,7L364,54.9c55.9,15,89.1,72.5,74.1,128.4l-49.3,183.9c-15,55.9-72.5,89.1-128.4,74.1
		L81.7,393.5C25.8,378.5-7.4,321,7.6,265.1L56.9,81.2C71.9,25.2,129.4-8,185.4,7z"/>
	<g id="icon" transform="translate(27.139 27.43)">
		<g id="Group_39">
			<path id="Path_69" class="st1" d="M92.1,298.9c2,1,4.4,0.9,6.2-0.4l52.5-35.9h134.1c15.1,0,27.4-12.3,27.4-27.4V116.8
				c0-15.1-12.3-27.4-27.4-27.4H116.3c-15.1,0-27.4,12.3-27.4,27.4v176.7C88.9,295.8,90.1,297.8,92.1,298.9z M101,116.8
				c0-8.5,6.9-15.3,15.3-15.3h168.6c8.5,0,15.3,6.9,15.3,15.3v118.5c0,8.5-6.9,15.3-15.3,15.3h-136c-1.2,0-2.4,0.4-3.4,1.1
				L101,282.1V116.8z"/>
			<path id="Path_70" class="st1" d="M179.6,163.9c3.3,0,6-2.7,6-6v-5.2c0-3.3-2.7-6-6-6s-6,2.7-6,6v5.2
				C173.6,161.2,176.3,163.9,179.6,163.9L179.6,163.9z"/>
			<path id="Path_71" class="st1" d="M221.5,163.9c3.3,0,6-2.7,6-6v-5.2c0-3.3-2.7-6-6-6s-6,2.7-6,6v5.2
				C215.5,161.2,218.2,163.9,221.5,163.9L221.5,163.9z"/>
			<path id="Path_72" class="st1" d="M200.6,218.4c18.2,0,33.7-15.1,36.8-35.8c0.5-3.3-1.8-6.4-5.1-6.9c-0.3,0-0.6-0.1-0.9-0.1
				h-61.6c-3.3,0-6,2.7-6.1,6c0,0.3,0,0.6,0.1,0.9C166.9,203.4,182.4,218.4,200.6,218.4z M223.7,187.7c-2.8,12.8-15.4,20.8-28.2,18
				c-9-2-16.1-9-18-18H223.7z"/>
		</g>
	</g>
</g>
</svg>
