<?xml version="1.0" encoding="utf-8"?>
<!-- Generator: Adobe Illustrator 24.0.0, SVG Export Plug-In . SVG Version: 6.00 Build 0)  -->
<svg version="1.1" id="Layer_1" xmlns="http://www.w3.org/2000/svg" xmlns:xlink="http://www.w3.org/1999/xlink" x="0px" y="0px"
	 viewBox="0 0 448 448" enable-background="new 0 0 448 448" xml:space="preserve">
<g>
	<path id="Rectangle_14" fill="#409EA3" d="M185.4,7L364,54.9c55.9,15,89.1,72.5,74.1,128.4l-49.3,183.9
		c-15,55.9-72.5,89.1-128.4,74.1L81.7,393.5C25.8,378.5-7.4,321,7.6,265.1L56.9,81.2C71.9,25.2,129.4-8,185.4,7z"/>
	<g id="Recherche_icone_1_" transform="translate(209.403 898.404)">
		<g id="Recherche_icone-2_1_">
			<path fill="#FFFFFF" d="M88.1-563l-60-60c-1.2-1.2-1.2-2.3-1.2-4.6c0-1.2,1.2-3.5,1.2-4.6l9.2-9.2l-15-15
				c-4.6,3.5-8.1,6.9-12.7,9.2c-11.5,6.9-24.2,10.4-38.1,10.4c-20.8,0-41.5-8.1-56.5-23.1c-31.1-31.1-31.1-80.7,0-111.9
				c31.1-31.1,80.7-31.1,111.9,0c25.4,25.4,30,63.4,13.8,94.6c-2.3,4.6-5.8,9.2-9.2,12.7l15,15l9.2-9.2c2.3-2.3,5.8-2.3,8.1,0l0,0
				l60,60c2.3,2.3,2.3,5.8,0,8.1l-26.5,26.5c-1.2,1.2-2.3,1.2-4.6,1.2C90.4-561.8,89.3-561.8,88.1-563z M39.7-626.4l51.9,51.9
				l17.3-17.3L57-643.7L39.7-626.4z M-76.8-762.5c-26.5,26.5-26.5,69.2,0,95.7c20.8,20.8,54.2,25.4,80.7,11.5
				c5.8-3.5,10.4-6.9,15-11.5c4.6-4.6,8.1-9.2,11.5-15c15-26.5,10.4-58.8-11.5-80.7c-12.7-12.7-30-19.6-47.3-19.6
				C-46.8-782.1-64.1-775.2-76.8-762.5L-76.8-762.5z M-65.3-742.9c-2.3-2.3-2.3-5.8,0-8.1l0,0c19.6-19.6,53.1-19.6,72.7,0
				c2.3,2.3,2.3,5.8,0,8.1l0,0c-1.2,1.2-2.3,1.2-4.6,1.2c-1.2,0-3.5-1.2-4.6-1.2c-16.1-16.1-41.5-16.1-56.5,0
				c-1.2,1.2-2.3,1.2-4.6,1.2C-63-740.6-65.3-741.7-65.3-742.9L-65.3-742.9z"/>
		</g>
	</g>
</g>
</svg>
