<?xml version="1.0" encoding="utf-8"?>
<!-- Generator: Adobe Illustrator 24.0.0, SVG Export Plug-In . SVG Version: 6.00 Build 0)  -->
<svg version="1.1" id="Component_45_1" xmlns="http://www.w3.org/2000/svg" xmlns:xlink="http://www.w3.org/1999/xlink" x="0px"
	 y="0px" viewBox="0 0 48 48" enable-background="new 0 0 48 48" xml:space="preserve">
<g id="icon_cœur" transform="translate(208.374 1046.674)">
	<path id="Path_73" fill="#FFFFFF" d="M-185.3-1014.2c0.1,0.1,0.3,0.2,0.4,0.2l0.2,0.1c0.2,0.1,0.4,0.1,0.5,0l0.2-0.1
		c0.2-0.1,0.3-0.2,0.4-0.2c6.8-3.9,10.3-8.8,9.3-13c-0.7-3.1-3.8-5-6.9-4.2c-1.4,0.3-2.5,1.1-3.3,2.3c-1.8-2.6-5.4-3.2-8-1.4
		c-1.1,0.8-2,2-2.3,3.3C-195.6-1023-192.1-1018.1-185.3-1014.2z M-193.6-1027c0.4-1.9,1.9-3.3,3.8-3.5c0.2,0,0.5,0,0.7,0
		c1.8,0,3.4,1,4.2,2.7c0.1,0.3,0.5,0.4,0.8,0.2c0.1-0.1,0.2-0.1,0.2-0.2c0.8-1.9,2.9-3,4.9-2.6c1.9,0.3,3.4,1.7,3.8,3.5
		c0.9,3.8-2.4,8.3-8.8,11.9c-0.1,0.1-0.2,0.1-0.4,0.2c-0.1-0.1-0.3-0.1-0.4-0.2C-191.2-1018.7-194.5-1023.2-193.6-1027z"/>
	<path id="Path_74" fill="#FFFFFF" d="M-179.7-1027.9c0.1,0,0.3,0,0.4,0c0.7,0.2,1.3,0.7,1.4,1.5c0.1,0.2,0.3,0.4,0.5,0.4
		c0,0,0.1,0,0.1,0c0.3,0,0.5-0.3,0.4-0.6c0,0,0,0,0,0c-0.2-1.2-1.2-2.1-2.3-2.3c-0.2,0-0.3,0-0.5,0c-0.3,0-0.5,0.2-0.5,0.5
		C-180.3-1028.2-180.1-1028-179.7-1027.9C-179.8-1027.9-179.7-1027.9-179.7-1027.9L-179.7-1027.9z"/>
	<path id="Path_75" fill="#FFFFFF" d="M-177.2-1024.6c-0.2-0.1-0.4,0-0.6,0.1c-0.2,0.1-0.2,0.4-0.1,0.5c0,0.1,0.1,0.1,0.1,0.2
		c0.1,0.1,0.2,0.2,0.4,0.2c0.1,0,0.3-0.1,0.4-0.2c0.1-0.1,0.2-0.2,0.2-0.4c0-0.1-0.1-0.3-0.2-0.4
		C-177.1-1024.6-177.1-1024.6-177.2-1024.6z"/>
</g>
</svg>
