<?xml version="1.0" encoding="utf-8"?>
<!-- Generator: Adobe Illustrator 24.0.0, SVG Export Plug-In . SVG Version: 6.00 Build 0)  -->
<svg version="1.1" id="Component_13_1" xmlns="http://www.w3.org/2000/svg" xmlns:xlink="http://www.w3.org/1999/xlink" x="0px"
	 y="0px" viewBox="0 0 857 677.8" enable-background="new 0 0 857 677.8" xml:space="preserve">
<path id="Path_184" opacity="0.8" fill="#FFFFFF" enable-background="new    " d="M853,223c-5,90.3-60.5,186.1-143.8,259.5
	C626.9,557.2,517.8,605.8,421.6,639c-97.7,29.6-155.2,45.4-211.3,4.8c-53.7-37.7-122-134-174.8-247.9C-17.5,282.8,2,192.2,93,125.9
	C182.2,58,316.6,22.2,434.7,11.5c119.6-8.3,218.1,2.6,295.8,34C806.8,77.3,858.1,132.4,853,223z"/>
<circle id="Ellipse_39" fill="#BF357C" cx="453.3" cy="111.5" r="24.5"/>
<ellipse id="Ellipse_40" fill="#FF851A" cx="357.8" cy="87.5" rx="15" ry="15.5"/>
<path id="Path_51" fill="#00D3B7" d="M444.5,520.3c0-13.5,11-24.5,24.5-24.5s24.5,11,24.5,24.5C493.5,533.8,444.5,533.8,444.5,520.3
	z"/>
<circle id="Ellipse_41" fill="#FF2C4E" cx="637.6" cy="299.5" r="15.5"/>
</svg>
