<?xml version="1.0" encoding="utf-8"?>
<!-- Generator: Adobe Illustrator 24.0.0, SVG Export Plug-In . SVG Version: 6.00 Build 0)  -->
<svg version="1.1" id="Component_55_1" xmlns="http://www.w3.org/2000/svg" xmlns:xlink="http://www.w3.org/1999/xlink" x="0px"
	 y="0px" viewBox="0 0 1366 405" enable-background="new 0 0 1366 405" xml:space="preserve">
<rect x="118" y="24.5" fill="none" width="1366" height="405"/>
<path id="Path_138" opacity="0.8" fill="#FFFFFF" enable-background="new    " d="M672.8,244.9c-4.3,78.9-52.9,162.6-125.7,226.9
	c-72,65.3-167.4,107.8-251.5,136.8c-85.4,25.8-135.7,39.7-184.7,4.2C64,579.8,4.4,495.6-41.8,396.1c-46.3-98.9-29.3-178,50.2-236
	c78-59.3,195.4-90.6,298.7-99.9c104.5-7.2,190.7,2.3,258.5,29.7C632.3,117.6,677.2,165.8,672.8,244.9z"/>
<g id="Titre" transform="translate(-712.353 -140)">
	<circle id="Ellipse_39" fill="#BF357C" cx="1195.5" cy="194.5" r="24.5"/>
	<ellipse id="Ellipse_40" fill="#FF851A" cx="1100" cy="170.5" rx="15" ry="15.5"/>
	<circle id="Ellipse_41" fill="#FF2C4E" cx="1379.9" cy="382.5" r="15.5"/>
</g>
</svg>
